Credentials cache: API:2D41181B-EA88-4026-B5C1-8530DF9E46CB
        Principal: rkabzins@42ADEL.ORG.AU

  Issued                Expires               Principal
Nov 23 15:32:41 2021  Nov 24 01:32:41 2021  krbtgt/42ADEL.ORG.AU@42ADEL.ORG.AU
