Credentials cache: API:8ED1225E-88AD-4A10-8D39-49FA7A552703
        Principal: rkabzins@42ADEL.ORG.AU

  Issued                Expires               Principal
Nov 25 11:30:10 2021  Nov 25 21:30:10 2021  krbtgt/42ADEL.ORG.AU@42ADEL.ORG.AU
Nov 25 11:30:12 2021  Nov 25 21:30:10 2021  HTTP/student-storage.42adel.org.au@42ADEL.ORG.AU
